// Jest Snapshot v1, https://goo.gl/fbAQLP

exports[`BaseField renders correctly 1`] = `
<fieldset
  class=""
>
  <label>
    
  </label>
   
  <input
    class="input"
  />
   
  <div
    class="prefix"
  />
   
  <div
    class="suffix"
  />
</fieldset>
`;
